%YAML 1.1
%TAG !u! tag:unity3d.com,2011:
--- !u!114 &11400000
MonoBehaviour:
  m_ObjectHideFlags: 0
  m_CorrespondingSourceObject: {fileID: 0}
  m_PrefabInstance: {fileID: 0}
  m_PrefabAsset: {fileID: 0}
  m_GameObject: {fileID: 0}
  m_Enabled: 1
  m_EditorHideFlags: 0
  m_Script: {fileID: 11500000, guid: 0b6758a859e945c293658346e146d3e2, type: 3}
  m_Name: Enemy_4_LVL_2
  m_EditorClassIdentifier: 
  MaxHealth: 4
  Difficulty: 11
  PrefabTemplate: {fileID: 8771935749328310062, guid: ce8744c932b2f2a47bef2f0fbcdf1193, type: 3}
  Treasure: {fileID: 11400000, guid: 68103ed5b47efe243a890475a08a648a, type: 2}
